[gd_scene load_steps=4 format=2]

[ext_resource path="res://Scene/wall.tres" type="TileSet" id=1]
[ext_resource path="res://Script/TestLevel.gd" type="Script" id=2]
[ext_resource path="res://Audio/Race to Mars.wav" type="AudioStream" id=3]

[node name="Level_2" type="Node2D"]
script = ExtResource( 2 )

[node name="ColorRect" type="ColorRect" parent="."]
modulate = Color( 0.290196, 0.105882, 0.105882, 1 )
margin_left = -146.0
margin_top = -147.0
margin_right = 539.0
margin_bottom = 469.0
rect_pivot_offset = Vector2( -260.623, 61.4988 )
__meta__ = {
"_edit_use_anchors_": false
}

[node name="Walls" type="TileMap" parent="."]
tile_set = ExtResource( 1 )
cell_size = Vector2( 16, 16 )
format = 1
tile_data = PoolIntArray( -262145, 0, 0, -327680, 0, 0, -327679, 0, 0, -327678, 0, 0, -327677, 0, 0, -327676, 0, 0, -327675, 0, 0, -327674, 0, 0, -327670, 0, 0, -327669, 0, 0, -327668, 0, 0, -327667, 0, 0, -327666, 0, 0, -327665, 0, 0, -327664, 0, 0, -327662, 0, 0, -327661, 0, 0, -327660, 0, 0, -327659, 0, 0, -327658, 0, 0, -327657, 0, 0, -327656, 0, 0, -327655, 0, 0, -327654, 0, 0, -196609, 0, 0, -262138, 0, 0, -262134, 0, 0, -262128, 0, 0, -262126, 0, 0, -262118, 0, 0, -131073, 0, 0, -196602, 0, 0, -196598, 0, 0, -196592, 0, 0, -196590, 0, 0, -196582, 0, 0, -65537, 0, 0, -131066, 0, 0, -131062, 0, 0, -131056, 0, 0, -131054, 0, 0, -131046, 0, 0, -1, 0, 0, -65530, 0, 0, -65529, 0, 0, -65528, 0, 0, -65527, 0, 0, -65526, 0, 0, -65520, 0, 0, -65519, 0, 0, -65518, 0, 0, -65510, 0, 0, 65535, 0, 0, 6, 0, 0, 18, 0, 0, 26, 0, 0, 131071, 0, 0, 65542, 0, 0, 65554, 0, 0, 65562, 0, 0, 196607, 0, 0, 131078, 0, 0, 131090, 0, 0, 131098, 0, 0, 262143, 0, 0, 196614, 0, 0, 196626, 0, 0, 196627, 0, 0, 196628, 0, 0, 196631, 0, 0, 196632, 0, 0, 196633, 0, 0, 196634, 0, 0, 327679, 0, 0, 262150, 0, 0, 262159, 0, 0, 262160, 0, 0, 262161, 0, 0, 262162, 0, 0, 262170, 0, 0, 393214, 0, 0, 393215, 0, 0, 327680, 0, 0, 327681, 0, 0, 327684, 0, 0, 327685, 0, 0, 327686, 0, 0, 327706, 0, 0, 458750, 0, 0, 393242, 0, 0, 524286, 0, 0, 458778, 0, 0, 589822, 0, 0, 524314, 0, 0, 655358, 0, 0, 655359, 0, 0, 589824, 0, 0, 589825, 0, 0, 589828, 0, 0, 589829, 0, 0, 589830, 0, 0, 589839, 0, 0, 589840, 0, 0, 589841, 0, 0, 589842, 0, 0, 589850, 0, 0, 720895, 0, 0, 655366, 0, 0, 655378, 0, 0, 655379, 0, 0, 655380, 0, 0, 655381, 0, 0, 655384, 0, 0, 655385, 0, 0, 655386, 0, 0, 786431, 0, 0, 720902, 0, 0, 720914, 0, 0, 720922, 0, 0, 851967, 0, 0, 786438, 0, 0, 786450, 0, 0, 786458, 0, 0, 917503, 0, 0, 851974, 0, 0, 851986, 0, 0, 851994, 0, 0, 983039, 0, 0, 917510, 0, 0, 917511, 0, 0, 917512, 0, 0, 917513, 0, 0, 917514, 0, 0, 917519, 0, 0, 917520, 0, 0, 917521, 0, 0, 917522, 0, 0, 917530, 0, 0, 1048575, 0, 0, 983046, 0, 0, 983050, 0, 0, 983055, 0, 0, 983058, 0, 0, 983066, 0, 0, 1114111, 0, 0, 1048582, 0, 0, 1048586, 0, 0, 1048591, 0, 0, 1048594, 0, 0, 1048602, 0, 0, 1179647, 0, 0, 1114118, 0, 0, 1114122, 0, 0, 1114127, 0, 0, 1114130, 0, 0, 1114138, 0, 0, 1245183, 0, 0, 1179648, 0, 0, 1179649, 0, 0, 1179650, 0, 0, 1179651, 0, 0, 1179652, 0, 0, 1179653, 0, 0, 1179654, 0, 0, 1179658, 0, 0, 1179659, 0, 0, 1179660, 0, 0, 1179661, 0, 0, 1179662, 0, 0, 1179663, 0, 0, 1179666, 0, 0, 1179667, 0, 0, 1179668, 0, 0, 1179669, 0, 0, 1179670, 0, 0, 1179671, 0, 0, 1179672, 0, 0, 1179673, 0, 0, 1179674, 0, 0 )

[node name="SpawnPositionPlayer" type="Position2D" parent="."]
position = Vector2( -1.78178, 113.144 )

[node name="Spawn Position Enemies" type="Node2D" parent="."]

[node name="SpawnPositionEnemies_1" type="Position2D" parent="Spawn Position Enemies"]
position = Vector2( 47.8324, -43.6297 )

[node name="SpawnPositionEnemies_2" type="Position2D" parent="Spawn Position Enemies"]
position = Vector2( 47.8304, 266.354 )

[node name="SpawnPositionEnemies_3" type="Position2D" parent="Spawn Position Enemies"]
position = Vector2( 136.908, 31.2884 )

[node name="SpawnPositionEnemies_4" type="Position2D" parent="Spawn Position Enemies"]
position = Vector2( 138.249, 201.393 )

[node name="SpawnPositionEnemies_5" type="Position2D" parent="Spawn Position Enemies"]
position = Vector2( 356.652, -35.8615 )

[node name="SpawnPositionEnemies_6" type="Position2D" parent="Spawn Position Enemies"]
position = Vector2( 361.255, 264.678 )

[node name="SpawnPositionEnemies_7" type="Position2D" parent="Spawn Position Enemies"]
position = Vector2( 270.876, 204.028 )

[node name="SpawnPositionEnemies_8" type="Position2D" parent="Spawn Position Enemies"]
position = Vector2( 267.308, 30.9984 )

[node name="Spawn Position Pickups" type="Node2D" parent="."]

[node name="SpawnPickup" type="Position2D" parent="Spawn Position Pickups"]
position = Vector2( 214.159, 266.535 )

[node name="SpawnPickup2" type="Position2D" parent="Spawn Position Pickups"]
position = Vector2( 215.716, -33.6911 )

[node name="EnemyList" type="Node2D" parent="."]

[node name="PickupList" type="Node2D" parent="."]

[node name="GameMusic" type="AudioStreamPlayer" parent="."]
stream = ExtResource( 3 )
volume_db = -10.0
